module bitbucket.org/kaesystems/dds-controller

go 1.16

require (
	github.com/go-logr/logr v0.4.0
	github.com/onsi/ginkgo v1.16.4
	github.com/onsi/gomega v1.15.0
	gopkg.in/yaml.v3 v3.0.0-20210107192922-496545a6307b
	k8s.io/api v0.22.1
	k8s.io/apimachinery v0.22.1
	k8s.io/client-go v0.22.1
	sigs.k8s.io/controller-runtime v0.10.0
)
